<?xml version="1.0" encoding="utf-8"?>
<COLLADA xmlns="http://www.collada.org/2005/11/COLLADASchema" version="1.4.1" xmlns:xsi="http://www.w3.org/2001/XMLSchema-instance">
  <asset>
    <contributor>
      <author>Blender User</author>
      <authoring_tool>Blender 2.80.39 commit date:2019-01-02, commit time:18:59, hash:11f2c65128dc</authoring_tool>
    </contributor>
    <created>2019-04-24T20:32:54</created>
    <modified>2019-04-24T20:32:54</modified>
    <unit name="meter" meter="1"/>
    <up_axis>Z_UP</up_axis>
  </asset>
  <library_effects>
    <effect id="Blade-effect">
      <profile_COMMON>
        <technique sid="common">
          <lambert>
            <diffuse>
              <color sid="diffuse">0.25 0.25 0.25 1</color>
            </diffuse>
            <specular>
              <color sid="specular">0 0.5 0 1</color>
            </specular>
            <transparent opaque="A_ONE">
              <color>1 1 1 0</color>
            </transparent>
          </lambert>
        </technique>
      </profile_COMMON>
    </effect>
    <effect id="Guard-effect">
      <profile_COMMON>
        <technique sid="common">
          <lambert>
            <diffuse>
              <color sid="diffuse">0.07323574 0.07323574 0.07323574 1</color>
            </diffuse>
            <specular>
              <color sid="specular">0 0.5 0 1</color>
            </specular>
            <transparent opaque="A_ONE">
              <color>1 1 1 0</color>
            </transparent>
          </lambert>
        </technique>
      </profile_COMMON>
    </effect>
    <effect id="Handle-effect">
      <profile_COMMON>
        <technique sid="common">
          <lambert>
            <diffuse>
              <color sid="diffuse">0.1149356 0.0652579 0.05096712 1</color>
            </diffuse>
            <specular>
              <color sid="specular">0 0.5 0 1</color>
            </specular>
            <transparent opaque="A_ONE">
              <color>1 1 1 0</color>
            </transparent>
          </lambert>
        </technique>
      </profile_COMMON>
    </effect>
  </library_effects>
  <library_images/>
  <library_materials>
    <material id="Blade-material" name="Blade">
      <instance_effect url="#Blade-effect"/>
    </material>
    <material id="Guard-material" name="Guard">
      <instance_effect url="#Guard-effect"/>
    </material>
    <material id="Handle-material" name="Handle">
      <instance_effect url="#Handle-effect"/>
    </material>
  </library_materials>
  <library_geometries>
    <geometry id="Cube_001-mesh" name="Cube.001">
      <mesh>
        <source id="Cube_001-mesh-positions">
          <float_array id="Cube_001-mesh-positions-array" count="159">-0.557334 0 -4.258503 0 0.604113 -4.258503 0 -0.6041142 -4.258503 0 -0.934494 1.780359 -0.8 0 1.780359 0 0.934494 1.780359 0.557334 0 -4.258503 0.8 0 1.780359 -2.23994e-4 4.03427e-4 2.75 0 0.6499986 -4.169747 -0.6 0 -4.169747 0 -0.65 -4.169747 0.6 0 -4.169747 0 1.200217 -4.575814 -0.7196651 0 -4.475813 0 -1.200219 -4.575814 0.7196651 0 -4.475813 0 1.200217 -4.265776 -0.7196651 0 -4.265776 0 -1.200219 -4.265776 0.7196651 0 -4.265776 0 0.4192383 -5.84972 0 0.4192383 -4.34972 0.3826183 0.323307 -5.84972 0.3826183 0.323307 -4.34972 0.541104 0 -5.84972 0.541104 0 -4.34972 0.3826183 -0.323307 -5.84972 0.3826183 -0.323307 -4.34972 0 -0.4192383 -5.84972 0 -0.4192383 -4.34972 -0.3826183 -0.3233069 -5.84972 -0.3826183 -0.3233069 -4.34972 -0.541104 0 -5.84972 -0.541104 0 -4.34972 -0.3826183 0.3233069 -5.84972 -0.3826183 0.3233069 -4.34972 -7.88448e-5 -0.4994279 -5.990786 -1.08103e-4 -0.9170837 -5.759721 2.12866e-4 0.4994279 -5.990786 2.91924e-4 0.9170837 -5.759721 -0.4125292 -4.47199e-5 -5.990786 -0.7575455 0 -5.75972 0.4125632 4.47245e-5 -5.990786 0.7575455 0 -5.75972 -0.7575455 0 -5.990786 -1.08103e-4 -0.8843308 -5.990786 2.91924e-4 0.8843308 -5.990786 0.7575455 0 -5.990786 -0.4125292 -4.47199e-5 -6.142168 -7.88448e-5 -0.4339219 -6.142168 2.12866e-4 0.4339219 -6.142168 0.4125632 4.47245e-5 -6.142168</float_array>
          <technique_common>
            <accessor source="#Cube_001-mesh-positions-array" count="53" stride="3">
              <param name="X" type="float"/>
              <param name="Y" type="float"/>
              <param name="Z" type="float"/>
            </accessor>
          </technique_common>
        </source>
        <source id="Cube_001-mesh-normals">
          <float_array id="Cube_001-mesh-normals-array" count="249">-0.7345794 -0.6780734 -0.02469128 -0.7592892 0.650011 -0.03107929 0.7592892 0.650011 -0.03107929 0.7592892 -0.650011 -0.03107911 0.6435501 -0.5509295 0.5313379 0.6438087 -0.5511506 -0.5307951 0.6436519 0.5510165 -0.5311245 0.6437071 0.5510635 0.5310086 -0.02034175 -0.01219618 0.9997188 -0.6934036 0.6400722 -0.3309065 0.6934093 -0.6400669 -0.3309049 0.6930105 0.6393421 -0.3331339 -0.6930063 -0.6393458 -0.3331354 0 0.08303076 -0.996547 0.04471415 -0.0412532 0.9981477 0.02034175 0.01219618 0.9997188 -0.04470938 0.04125326 0.998148 -0.8576397 0.5142511 0 0.8576403 -0.5142502 0 0.8576392 0.514252 0 -0.8576392 -0.514252 0 0 -0.08303081 -0.9965471 0.2431958 0.9699773 0 0.8979187 0.4401614 0 0.8979188 -0.4401613 0 0.2431958 -0.9699773 0 -0.2431959 -0.9699773 0 -0.8979188 -0.4401613 0 -1.92734e-6 0 1 -0.8979187 0.4401615 0 -0.2431958 0.9699773 0 0 0 -1 -0.7593239 0.6507129 0 0.7594019 -0.6506218 0 0 5.19949e-7 1 0.7595716 0.6504237 0 -0.7594937 -0.6505147 0 0.7434011 0.6138408 -0.265621 8.69009e-7 0 -1 -5.53828e-7 0 -1 1.33185e-6 0 -1 -0.7246048 0.6891647 0 0.7246882 -0.689077 0 -0.7433182 -0.6139252 -0.2656576 -0.7592892 -0.650011 -0.03107911 -0.7345787 0.6780741 -0.02469128 0.7345787 0.6780741 -0.02469128 0.7345794 -0.6780734 -0.02469128 -0.04471415 -0.0412532 0.9981477 -0.6930105 0.6393421 -0.3331339 0.6930063 -0.6393458 -0.3331354 0.6934036 0.6400722 -0.3309065 -0.6934093 -0.6400669 -0.3309049 0.02034175 -0.01219618 0.9997188 0.04470938 0.04125326 0.998148 -0.02034175 0.01219618 0.9997188 -0.8576392 0.514252 0 0.8576392 -0.514252 0 0.8576397 0.5142511 0 -0.8576403 -0.5142502 0 0.8979188 0.4401613 0 0.8979187 -0.4401614 0 -0.2431958 -0.9699773 0 -0.8979188 -0.4401613 0 0 0 1 -1.48632e-6 0 1 1.92734e-6 0 1 -0.8979189 0.4401611 0 -0.2431958 0.9699773 0 2.97265e-6 0 -1 -1.92734e-6 0 -1 -0.7677363 0.6344242 -0.08992803 0.7678127 -0.6343335 -0.08991539 0 -5.19949e-7 1 0.7679784 0.6341367 -0.08988749 -0.767902 -0.6342275 -0.08990031 0.7248591 0.6888972 0 -8.68667e-7 0 -1 5.5361e-7 0 -1 -1.33185e-6 0 -1 -0.7431439 0.6141029 -0.2657344 0.7432245 -0.6140207 -0.265699 -0.7247782 -0.6889824 0</float_array>
          <technique_common>
            <accessor source="#Cube_001-mesh-normals-array" count="83" stride="3">
              <param name="X" type="float"/>
              <param name="Y" type="float"/>
              <param name="Z" type="float"/>
            </accessor>
          </technique_common>
        </source>
        <source id="Cube_001-mesh-map-0">
          <float_array id="Cube_001-mesh-map-0-array" count="564">0.375 0.875 0.625 1 0.375 1 0.375 0.375 0.625 0.125 0.625 0.375 0.625 0.625 0.375 0.375 0.625 0.375 0.375 0.875 0.625 0.625 0.625 0.875 0.625 0.875 0.625 0.875 0.625 0.625 0 0 0 0 0 0 0 0 0 0 0 0 0 0 0 0 0 0 0.375 0.8594216 0.3750001 0.9462949 0.375 0.8594216 0.375 0.4400687 0.375 1 0.375 0.375 0.375 0.8594216 0.375 0.625 0.375 0.875 0.375 0.4400687 0.375 0.625 0.3750001 0.6317802 0.375 0.8594216 0.375 1 0.3750001 0.9462949 0.375 0.8594216 0.3750001 0.9462949 0.3750001 0.6317802 0.375 0.8594216 0.3750001 0.6317802 0.3750001 0.6317802 0.375 0.4400687 0.3750001 0.6317802 0.375 0.4400687 0.375 0.4400687 0.3750001 0.9462949 0.3750001 0.9462949 0.3750001 0.9462949 0.375 0.4400687 0.375 0.4400687 0.3750001 0.6317802 0.375 0.8594216 0.375 0.8594216 0.3750001 0.6317802 0.375 0.4400687 0.3750001 0.6317802 0.3750001 0.9462949 0.375 0.8594216 0.3750001 0.9462949 0.375 0.4400687 0.3750001 0.6317802 0.3750001 0.9462949 1 1 0.875 0.5 1 0.5 0.875 1 0.75 0.5 0.875 0.5 0.75 1 0.625 0.5 0.75 0.5 0.625 1 0.5 0.5 0.625 0.5 0.5 1 0.375 0.5 0.5 0.5 0.375 1 0.25 0.5 0.375 0.5 0.25 0.00999999 0.4197056 0.08029437 0.4197056 0.4197056 0.25 1 0.125 0.5 0.25 0.5 0.125 1 0 0.5 0.125 0.5 0.5802944 0.08029443 0.51 0.25 0.5802944 0.4197056 0.625 0.125 0.375 0.25 0.375 0.125 0.625 0.625 0.375 0.75 0.375 0.625 0.875 0.625 0.625 0.625 0.875 0.5 0.375 0.5 0.625 0.625 0.375 0.625 0.375 0 0.625 0.125 0.375 0.125 0.3180771 0.6249939 0.3180802 0.5569272 0.3180802 0.5569272 0.1819223 0.6930729 0.125 0.625 0.1819192 0.6250061 0.3180802 0.5569272 0.125 0.625 0.375 0.5 0.1819223 0.6930729 0.375 0.625 0.125 0.75 0.3180802 0.5569272 0.375 0.625 0.3180771 0.6249939 0.3180771 0.6249939 0.1819192 0.6250061 0.3180802 0.5569272 0.1819192 0.6250061 0.3180802 0.5569272 0.1819192 0.6250061 0.3180771 0.6249939 0.1819223 0.6930729 0.3180771 0.6249939 0.1819192 0.6250061 0.1819223 0.6930729 0.1819223 0.6930729 0.375 0.875 0.625 0.875 0.625 1 0.375 0.375 0.375 0.125 0.625 0.125 0.625 0.625 0.375 0.625 0.375 0.375 0.375 0.875 0.375 0.625 0.625 0.625 0.375 0.8594216 0.3750001 0.9462949 0.3750001 0.9462949 0.375 0.4400687 0.3750001 0.9462949 0.375 1 0.375 0.8594216 0.3750001 0.6317802 0.375 0.625 0.375 0.4400687 0.375 0.375 0.375 0.625 0.375 0.8594216 0.375 0.875 0.375 1 0.375 0.8594216 0.375 0.8594216 0.3750001 0.6317802 0.375 0.4400687 0.3750001 0.6317802 0.3750001 0.6317802 0.375 0.4400687 0.375 0.4400687 0.3750001 0.9462949 0.3750001 0.9462949 0.3750001 0.9462949 0.375 0.4400687 0.3750001 0.6317802 0.3750001 0.6317802 0.375 0.8594216 0.3750001 0.6317802 0.375 0.4400687 0.375 0.4400687 0.3750001 0.9462949 0.375 0.8594216 0.375 0.8594216 1 1 0.875 1 0.875 0.5 0.875 1 0.75 1 0.75 0.5 0.75 1 0.625 1 0.625 0.5 0.625 1 0.5 1 0.5 0.5 0.5 1 0.375 1 0.375 0.5 0.375 1 0.25 1 0.25 0.5 0.49 0.25 0.4197056 0.4197056 0.4197056 0.08029437 0.4197056 0.4197056 0.25 0.49 0.25 0.00999999 0.25 0.49 0.08029437 0.4197056 0.25 0.00999999 0.08029437 0.4197056 0.00999999 0.25 0.08029437 0.08029443 0.25 0.00999999 0.08029437 0.4197056 0.08029437 0.08029443 0.25 1 0.125 1 0.125 0.5 0.125 1 0 1 0 0.5 0.5802944 0.4197056 0.75 0.49 0.75 0.00999999 0.75 0.49 0.9197056 0.4197056 0.9197056 0.08029437 0.9197056 0.4197056 0.99 0.25 0.9197056 0.08029437 0.9197056 0.08029437 0.75 0.00999999 0.75 0.49 0.75 0.00999999 0.5802944 0.08029443 0.5802944 0.4197056 0.625 0.125 0.625 0.25 0.375 0.25 0.625 0.625 0.625 0.75 0.375 0.75 0.875 0.625 0.625 0.75 0.625 0.625 0.375 0.5 0.625 0.5 0.625 0.625 0.375 0 0.625 0 0.625 0.125 0.3180771 0.6249939 0.3180771 0.6249939 0.3180802 0.5569272 0.1819223 0.6930729 0.125 0.75 0.125 0.625 0.3180802 0.5569272 0.1819192 0.6250061 0.125 0.625 0.1819223 0.6930729 0.3180771 0.6249939 0.375 0.625 0.3180802 0.5569272 0.375 0.5 0.375 0.625 0.3180771 0.6249939 0.1819223 0.6930729 0.1819192 0.6250061 0.1819192 0.6250061 0.3180802 0.5569272 0.3180802 0.5569272 0.3180771 0.6249939 0.1819223 0.6930729 0.1819223 0.6930729 0.1819192 0.6250061 0.1819192 0.6250061 0.1819223 0.6930729</float_array>
          <technique_common>
            <accessor source="#Cube_001-mesh-map-0-array" count="282" stride="2">
              <param name="S" type="float"/>
              <param name="T" type="float"/>
            </accessor>
          </technique_common>
        </source>
        <source id="Cube_001-mesh-colors-Col" name="Col">
          <float_array id="Cube_001-mesh-colors-Col-array" count="1128">1 1 1 1 1 1 1 1 1 1 1 1 1 1 1 1 1 1 1 1 1 1 1 1 1 1 1 1 1 1 1 1 1 1 1 1 1 1 1 1 1 1 1 1 1 1 1 1 1 1 1 1 1 1 1 1 1 1 1 1 1 1 1 1 1 1 1 1 1 1 1 1 1 1 1 1 1 1 1 1 1 1 1 1 1 1 1 1 1 1 1 1 1 1 1 1 1 1 1 1 1 1 1 1 1 1 1 1 1 1 1 1 1 1 1 1 1 1 1 1 1 1 1 1 1 1 1 1 1 1 1 1 1 1 1 1 1 1 1 1 1 1 1 1 1 1 1 1 1 1 1 1 1 1 1 1 1 1 1 1 1 1 1 1 1 1 1 1 1 1 1 1 1 1 1 1 1 1 1 1 1 1 1 1 1 1 1 1 1 1 1 1 1 1 1 1 1 1 1 1 1 1 1 1 1 1 1 1 1 1 1 1 1 1 1 1 1 1 1 1 1 1 1 1 1 1 1 1 1 1 1 1 1 1 1 1 1 1 1 1 1 1 1 1 1 1 1 1 1 1 1 1 1 1 1 1 1 1 1 1 1 1 1 1 1 1 1 1 1 1 1 1 1 1 1 1 1 1 1 1 1 1 1 1 1 1 1 1 1 1 1 1 1 1 1 1 1 1 1 1 1 1 1 1 1 1 1 1 1 1 1 1 1 1 1 1 1 1 1 1 1 1 1 1 1 1 1 1 1 1 1 1 1 1 1 1 1 1 1 1 1 1 1 1 1 1 1 1 1 1 1 1 1 1 1 1 1 1 1 1 1 1 1 1 1 1 1 1 1 1 1 1 1 1 1 1 1 1 1 1 1 1 1 1 1 1 1 1 1 1 1 1 1 1 1 1 1 1 1 1 1 1 1 1 1 1 1 1 1 1 1 1 1 1 1 1 1 1 1 1 1 1 1 1 1 1 1 1 1 1 1 1 1 1 1 1 1 1 1 1 1 1 1 1 1 1 1 1 1 1 1 1 1 1 1 1 1 1 1 1 1 1 1 1 1 1 1 1 1 1 1 1 1 1 1 1 1 1 1 1 1 1 1 1 1 1 1 1 1 1 1 1 1 1 1 1 1 1 1 1 1 1 1 1 1 1 1 1 1 1 1 1 1 1 1 1 1 1 1 1 1 1 1 1 1 1 1 1 1 1 1 1 1 1 1 1 1 1 1 1 1 1 1 1 1 1 1 1 1 1 1 1 1 1 1 1 1 1 1 1 1 1 1 1 1 1 1 1 1 1 1 1 1 1 1 1 1 1 1 1 1 1 1 1 1 1 1 1 1 1 1 1 1 1 1 1 1 1 1 1 1 1 1 1 1 1 1 1 1 1 1 1 1 1 1 1 1 1 1 1 1 1 1 1 1 1 1 1 1 1 1 1 1 1 1 1 1 1 1 1 1 1 1 1 1 1 1 1 1 1 1 1 1 1 1 1 1 1 1 1 1 1 1 1 1 1 1 1 1 1 1 1 1 1 1 1 1 1 1 1 1 1 1 1 1 1 1 1 1 1 1 1 1 1 1 1 1 1 1 1 1 1 1 1 1 1 1 1 1 1 1 1 1 1 1 1 1 1 1 1 1 1 1 1 1 1 1 1 1 1 1 1 1 1 1 1 1 1 1 1 1 1 1 1 1 1 1 1 1 1 1 1 1 1 1 1 1 1 1 1 1 1 1 1 1 1 1 1 1 1 1 1 1 1 1 1 1 1 1 1 1 1 1 1 1 1 1 1 1 1 1 1 1 1 1 1 1 1 1 1 1 1 1 1 1 1 1 1 1 1 1 1 1 1 1 1 1 1 1 1 1 1 1 1 1 1 1 1 1 1 1 1 1 1 1 1 1 1 1 1 1 1 1 1 1 1 1 1 1 1 1 1 1 1 1 1 1 1 1 1 1 1 1 1 1 1 1 1 1 1 1 1 1 1 1 1 1 1 1 1 1 1 1 1 1 1 1 1 1 1 1 1 1 1 1 1 1 1 1 1 1 1 1 1 1 1 1 1 1 1 1 1 1 1 1 1 1 1 1 1 1 1 1 1 1 1 1 1 1 1 1 1 1 1 1 1 1 1 1 1 1 1 1 1 1 1 1 1 1 1 1 1 1 1 1 1 1 1 1 1 1 1 1 1 1 1 1 1 1 1 1 1 1 1 1 1 1 1 1 1 1 1 1 1 1 1 1 1 1 1 1 1 1 1 1 1 1 1 1 1 1 1 1 1 1 1 1 1 1 1 1 1 1 1 1 1 1 1 1 1 1 1 1 1 1 1 1 1 1 1 1 1 1 1 1 1 1 1 1 1 1 1 1 1 1 1 1 1 1 1 1 1 1 1 1 1 1 1 1 1 1 1 1 1 1 1 1 1 1 1 1 1 1 1 1 1 1 1 1 1 1 1 1 1 1 1 1 1 1 1 1 1 1 1 1 1 1 1 1 1 1 1 1 1 1 1 1 1 1 1 1 1 1 1 1 1 1 1 1 1 1 1 1 1 1 1 1 1</float_array>
          <technique_common>
            <accessor source="#Cube_001-mesh-colors-Col-array" count="282" stride="4">
              <param name="R" type="float"/>
              <param name="G" type="float"/>
              <param name="B" type="float"/>
              <param name="A" type="float"/>
            </accessor>
          </technique_common>
        </source>
        <vertices id="Cube_001-mesh-vertices">
          <input semantic="POSITION" source="#Cube_001-mesh-positions"/>
        </vertices>
        <polylist material="Blade-material" count="32">
          <input semantic="VERTEX" source="#Cube_001-mesh-vertices" offset="0"/>
          <input semantic="NORMAL" source="#Cube_001-mesh-normals" offset="1"/>
          <input semantic="TEXCOORD" source="#Cube_001-mesh-map-0" offset="2" set="1"/>
          <input semantic="COLOR" source="#Cube_001-mesh-colors-Col" offset="3" set="0"/>
          <vcount>3 3 3 3 3 3 3 3 3 3 3 3 3 3 3 3 3 3 3 3 3 3 3 3 3 3 3 3 3 3 3 3 </vcount>
          <p>11 0 0 0 4 0 1 1 10 0 2 2 9 1 3 3 4 1 4 4 5 1 5 5 7 2 6 6 9 2 7 7 5 2 8 8 11 3 9 9 7 3 10 10 3 3 11 11 8 4 12 12 3 4 13 13 7 4 14 14 5 5 15 15 8 5 16 16 4 5 17 17 8 6 18 18 3 6 19 19 4 6 20 20 8 7 21 21 7 7 22 22 5 7 23 23 1 9 27 27 10 9 28 28 9 9 29 29 2 10 30 30 12 10 31 31 11 10 32 32 1 11 33 33 12 11 34 34 6 11 35 35 2 12 36 36 10 12 37 37 0 12 38 38 30 28 84 84 28 28 85 85 24 28 86 86 31 31 93 93 33 31 94 94 35 31 95 95 11 44 138 138 3 44 139 139 4 44 140 140 9 45 141 141 10 45 142 142 4 45 143 143 7 46 144 144 12 46 145 145 9 46 146 146 11 47 147 147 12 47 148 148 7 47 149 149 1 49 153 153 0 49 154 154 10 49 155 155 2 50 156 156 6 50 157 157 12 50 158 158 1 51 159 159 9 51 160 160 12 51 161 161 2 52 162 162 11 52 163 163 10 52 164 164 26 64 204 204 24 64 205 205 28 64 206 206 24 64 207 207 22 64 208 208 30 64 209 209 22 65 210 210 36 65 211 211 30 65 212 212 36 64 213 213 34 64 214 214 32 64 215 215 30 66 216 216 36 66 217 217 32 66 218 218 35 69 225 225 21 69 226 226 29 69 227 227 21 31 228 228 23 31 229 229 27 31 230 230 23 31 231 231 25 31 232 232 27 31 233 233 27 31 234 234 29 31 235 235 21 31 236 236 29 70 237 237 31 70 238 238 35 70 239 239</p>
        </polylist>
        <polylist material="Guard-material" count="46">
          <input semantic="VERTEX" source="#Cube_001-mesh-vertices" offset="0"/>
          <input semantic="NORMAL" source="#Cube_001-mesh-normals" offset="1"/>
          <input semantic="TEXCOORD" source="#Cube_001-mesh-map-0" offset="2" set="1"/>
          <input semantic="COLOR" source="#Cube_001-mesh-colors-Col" offset="3" set="0"/>
          <vcount>3 3 3 3 3 3 3 3 3 3 3 3 3 3 3 3 3 3 3 3 3 3 3 3 3 3 3 3 3 3 3 3 3 3 3 3 3 3 3 3 3 3 3 3 3 3 </vcount>
          <p>2 8 24 24 18 8 25 25 19 8 26 26 15 13 39 39 14 13 40 40 16 13 41 41 2 14 42 42 20 14 43 43 6 14 44 44 1 15 45 45 20 15 46 46 17 15 47 47 1 16 48 48 18 16 49 49 0 16 50 50 14 17 51 51 17 17 52 52 13 17 53 53 16 18 54 54 19 18 55 55 15 18 56 56 16 19 57 57 17 19 58 58 20 19 59 59 14 20 60 60 19 20 61 61 18 20 62 62 13 21 63 63 16 21 64 64 14 21 65 65 42 32 96 96 47 32 97 97 45 32 98 98 44 33 99 99 46 33 100 100 48 33 101 101 42 34 102 102 44 34 103 103 40 34 104 104 47 35 105 105 44 35 106 106 48 35 107 107 46 36 108 108 42 36 109 109 45 36 110 110 43 37 111 111 51 37 112 112 39 37 113 113 37 38 114 114 45 38 115 115 41 38 116 116 39 31 117 117 45 31 118 118 47 31 119 119 37 31 120 120 48 31 121 121 46 31 122 122 39 39 123 123 48 39 124 124 43 39 125 125 52 40 126 126 49 40 127 127 51 40 128 128 41 41 129 129 51 41 130 130 49 41 131 131 43 42 132 132 50 42 133 133 52 42 134 134 41 43 135 135 50 43 136 136 37 43 137 137 2 48 150 150 0 48 151 151 18 48 152 152 2 53 165 165 19 53 166 166 20 53 167 167 1 54 168 168 6 54 169 169 20 54 170 170 1 55 171 171 17 55 172 172 18 55 173 173 14 56 174 174 18 56 175 175 17 56 176 176 16 57 177 177 20 57 178 178 19 57 179 179 16 58 180 180 13 58 181 181 17 58 182 182 14 59 183 183 15 59 184 184 19 59 185 185 42 71 240 240 40 71 241 241 47 71 242 242 44 72 243 243 38 72 244 244 46 72 245 245 42 73 246 246 38 73 247 247 44 73 248 248 47 74 249 249 40 74 250 250 44 74 251 251 46 75 252 252 38 75 253 253 42 75 254 254 43 76 255 255 52 76 256 256 51 76 257 257 37 31 258 258 46 31 259 259 45 31 260 260 39 77 261 261 41 77 262 262 45 77 263 263 37 78 264 264 43 78 265 265 48 78 266 266 39 31 267 267 47 31 268 268 48 31 269 269 52 79 270 270 50 79 271 271 49 79 272 272 41 80 273 273 39 80 274 274 51 80 275 275 43 81 276 276 37 81 277 277 50 81 278 278 41 82 279 279 49 82 280 280 50 82 281 281</p>
        </polylist>
        <polylist material="Handle-material" count="16">
          <input semantic="VERTEX" source="#Cube_001-mesh-vertices" offset="0"/>
          <input semantic="NORMAL" source="#Cube_001-mesh-normals" offset="1"/>
          <input semantic="TEXCOORD" source="#Cube_001-mesh-map-0" offset="2" set="1"/>
          <input semantic="COLOR" source="#Cube_001-mesh-colors-Col" offset="3" set="0"/>
          <vcount>3 3 3 3 3 3 3 3 3 3 3 3 3 3 3 3 </vcount>
          <p>22 22 66 66 23 22 67 67 21 22 68 68 24 23 69 69 25 23 70 70 23 23 71 71 26 24 72 72 27 24 73 73 25 24 74 74 28 25 75 75 29 25 76 76 27 25 77 77 30 26 78 78 31 26 79 79 29 26 80 80 32 27 81 81 33 27 82 82 31 27 83 83 34 29 87 87 35 29 88 88 33 29 89 89 36 30 90 90 21 30 91 91 35 30 92 92 22 22 186 186 24 22 187 187 23 22 188 188 24 60 189 189 26 60 190 190 25 60 191 191 26 61 192 192 28 61 193 193 27 61 194 194 28 25 195 195 30 25 196 196 29 25 197 197 30 62 198 198 32 62 199 199 31 62 200 200 32 63 201 201 34 63 202 202 33 63 203 203 34 67 219 219 36 67 220 220 35 67 221 221 36 68 222 222 22 68 223 223 21 68 224 224</p>
        </polylist>
      </mesh>
    </geometry>
  </library_geometries>
  <library_visual_scenes>
    <visual_scene id="Scene" name="Scene">
      <node id="Cube" name="Cube" type="NODE">
        <matrix sid="transform">0.4620184 0 0 0 0 0.763289 0 0 0 0 1 5.099721 0 0 0 1</matrix>
        <instance_geometry url="#Cube_001-mesh" name="Cube">
          <bind_material>
            <technique_common>
              <instance_material symbol="Blade-material" target="#Blade-material">
                <bind_vertex_input semantic="UVMap" input_semantic="TEXCOORD" input_set="0"/>
              </instance_material>
              <instance_material symbol="Guard-material" target="#Guard-material">
                <bind_vertex_input semantic="UVMap" input_semantic="TEXCOORD" input_set="0"/>
              </instance_material>
              <instance_material symbol="Handle-material" target="#Handle-material">
                <bind_vertex_input semantic="UVMap" input_semantic="TEXCOORD" input_set="0"/>
              </instance_material>
            </technique_common>
          </bind_material>
        </instance_geometry>
      </node>
    </visual_scene>
  </library_visual_scenes>
  <scene>
    <instance_visual_scene url="#Scene"/>
  </scene>
</COLLADA>