[gd_scene load_steps=7 format=2]

[ext_resource path="res://Characters/Player/Player.tscn" type="PackedScene" id=1]
[ext_resource path="res://Characters/Neutral/Neutral.tscn" type="PackedScene" id=2]
[ext_resource path="res://Characters/Friendly/Friendly.tscn" type="PackedScene" id=3]
[ext_resource path="res://Characters/Enemy/Enemy.tscn" type="PackedScene" id=4]

[sub_resource type="CubeMesh" id=1]

[sub_resource type="SpatialMaterial" id=2]
params_cull_mode = 1
albedo_color = Color( 0.933333, 0.933333, 0.933333, 1 )
metallic_specular = 0.72
roughness = 0.3
clearcoat_enabled = true
clearcoat = 1.0
clearcoat_gloss = 0.75
ao_enabled = true
ao_light_affect = 0.55
ao_on_uv2 = false
ao_texture_channel = 0

[node name="Spatial" type="Spatial"]

[node name="MeshInstance" type="MeshInstance" parent="."]
transform = Transform( 22.3716, 0, 0, 0, 7.26327, 0, 0, 0, 28.7308, 0, 7.3, 0 )
mesh = SubResource( 1 )
material/0 = SubResource( 2 )

[node name="OmniLight" type="OmniLight" parent="."]
transform = Transform( 1, 0, 0, 0, 1, 0, 0, 0, 1, 0.249929, 8.5135, 1.82098 )
light_energy = 0.35
shadow_enabled = true
shadow_color = Color( 0.407843, 0.407843, 0.407843, 1 )
omni_range = 206.0
omni_shadow_mode = 0

[node name="Player" parent="." instance=ExtResource( 1 )]
transform = Transform( -4.37114e-08, 0, 1, 0, 1, 0, -1, 0, -4.37114e-08, -3, 0, 0 )

[node name="Player2" parent="." instance=ExtResource( 2 )]
transform = Transform( 1, 0, 0, 0, 1, 0, 0, 0, 1, -9.87708, 0, -5.64737 )

[node name="Player3" parent="." instance=ExtResource( 3 )]
transform = Transform( 0.299836, 0, -0.953991, 0, 1, 0, 0.953991, 0, 0.299836, -4.30025, 0, -7.76578 )

[node name="Player4" parent="." instance=ExtResource( 4 )]
transform = Transform( -0.321325, 0, -0.946969, 0, 1, 0, 0.946969, 0, -0.321325, 0.651795, 4.76837e-07, -4.33896 )
