[gd_scene load_steps=3 format=2]

[ext_resource path="res://assets/Rectangle.dae" type="PackedScene" id=1]
[ext_resource path="res://Characters/Neutral/Neutral.material" type="Material" id=2]

[node name="Player" instance=ExtResource( 1 )]

[node name="Cube" parent="." index="0"]
material/0 = ExtResource( 2 )

