[gd_scene load_steps=3 format=2]

[ext_resource path="res://assets/Sphere.dae" type="PackedScene" id=1]
[ext_resource path="res://Characters/Player/Player.material" type="Material" id=2]

[node name="Sphere" instance=ExtResource( 1 )]

[node name="Sphere" parent="." index="0"]
material/0 = ExtResource( 2 )

